sizeof_uint8,sizeof(uint8)
sizeof_uint32,sizeof(uint32)
sizeof_OSAPINIB,sizeof(OSAPINIB)
offsetof_TCB_p_tinib,"offsetof(TCB,p_tinib)"
offsetof_TCB_curpri,"offsetof(TCB,curpri)"
offsetof_TCB_sp,"offsetof(TCB,tskctxb.sp)"
offsetof_TCB_pc,"offsetof(TCB,tskctxb.pc)"
offsetof_TINIB_exepri,"offsetof(TINIB,exepri)"
offsetof_TINIB_mpubase,#!defined(OMIT_STKMPUINFOB),,"offsetof(TINIB,stkmpu.mpubase)"
offsetof_TINIB_mpuacc,#!defined(OMIT_STKMPUINFOB),,"offsetof(TINIB,stkmpu.mpuacc)"
offsetof_OSAPCB_p_osapinib,"offsetof(OSAPCB,p_osapinib)"
offsetof_OSAPINIB_osap_trusted,"offsetof(OSAPINIB,osap_trusted)"
offsetof_OSAPINIB_tnum_inst_region,#!defined(OMIT_OSAPMPUINFOB),,"offsetof(OSAPINIB,osap_mpu.tnum_inst_region)"
offsetof_OSAPINIB_tnum_data_region,#!defined(OMIT_OSAPMPUINFOB),,"offsetof(OSAPINIB,osap_mpu.tnum_data_region)"
offsetof_ISRINIB_p_osapcb,"offsetof(ISRINIB,p_osapcb)"
offsetof_ISRCB_p_isrinib,"offsetof(ISRCB,p_isrinib)"
offsetof_TINIB_p_osapcb,"offsetof(TINIB,p_osapcb)"
offsetof_TINIB_ustksz,#!defined(USE_TSKINICTXB),,"offsetof(TINIB,ustksz)"
NIOS2_MPU_PRV_DATA_REGION_START,NIOS2_MPU_PRV_DATA_REGION_START
NIOS2_MPU_BKGND_CODE_REGION,NIOS2_MPU_BKGND_CODE_REGION
NIOS2_MPU_BKGND_DATA_REGION,NIOS2_MPU_BKGND_DATA_REGION
offsetof_INTINIB_remain_stksz,"offsetof(INTINIB,remain_stksz)"
offsetof_ISRINIB_p_intinib,"offsetof(ISRINIB,p_intinib)"
