offsetof_TCB_p_tinib,"offsetof(TCB,p_tinib)"
offsetof_TCB_curpri,"offsetof(TCB,curpri)"
offsetof_TCB_sp,"offsetof(TCB,tskctxb.sp)"
offsetof_TCB_pc,"offsetof(TCB,tskctxb.pc)"
offsetof_TINIB_exepri,"offsetof(TINIB,exepri)"
offsetof_INTINIB_remain_stksz,"offsetof(INTINIB,remain_stksz)"
offsetof_ISRCB_p_intinib,"offsetof(ISRCB,p_intinib)"
offsetof_SCDCB_p_schedtsk,"offsetof(SCDCB,p_schedtsk)"
offsetof_TINIB_p_osapcb,"offsetof(TINIB,p_osapcb)"
offsetof_TINIB_p_scdcb,"offsetof(TINIB,p_scdcb)"
