/AUTOSAR/EcucDefs/Os,,,1
/AUTOSAR/EcucDefs/Os/OsOS,OS,,1
/AUTOSAR/EcucDefs/Os/OsOS/OsScalabilityClass,SC,ENUM,0,1
/AUTOSAR/EcucDefs/Os/OsOS/OsStackMonitoring,STACKMONITORING,BOOLEAN,1
/AUTOSAR/EcucDefs/Os/OsOS/OsStatus,STATUS,ENUM,1
/AUTOSAR/EcucDefs/Os/OsOS/OsUseGetServiceId,GETSERVICEID,BOOLEAN,1
/AUTOSAR/EcucDefs/Os/OsOS/OsUseParameterAccess,PARAMETERACCESS,BOOLEAN,1
/AUTOSAR/EcucDefs/Os/OsOS/OsHooks,HOOK,,1
/AUTOSAR/EcucDefs/Os/OsOS/OsHooks/OsStartupHook,STARTUPHOOK,BOOLEAN,1
/AUTOSAR/EcucDefs/Os/OsOS/OsHooks/OsShutdownHook,SHUTDOWNHOOK,BOOLEAN,1
/AUTOSAR/EcucDefs/Os/OsOS/OsHooks/OsPreTaskHook,PRETASKHOOK,BOOLEAN,1
/AUTOSAR/EcucDefs/Os/OsOS/OsHooks/OsPostTaskHook,POSTTASKHOOK,BOOLEAN,1
/AUTOSAR/EcucDefs/Os/OsOS/OsHooks/OsErrorHook,ERRORHOOK,BOOLEAN,1
/AUTOSAR/EcucDefs/Os/OsOS/OsHooks/OsProtectionHook,PROTECTIONHOOK,BOOLEAN,1
/AUTOSAR/EcucDefs/Os/OsOS/OsOsStack,OSTK,,0,1
/AUTOSAR/EcucDefs/Os/OsOS/OsOsStack/OsOsStackSize,STKSZ,INT,1
/AUTOSAR/EcucDefs/Os/OsOS/OsOsStack/OsOsStackStartAddress,STK,+STRING,0,1
/AUTOSAR/EcucDefs/Os/OsOS/OsHookStack,HSTK,,0,1
/AUTOSAR/EcucDefs/Os/OsOS/OsHookStack/OsHookStackSize,STKSZ,INT,1
/AUTOSAR/EcucDefs/Os/OsOS/OsSystemCycle,SYSCYC,,1
/AUTOSAR/EcucDefs/Os/OsOS/OsSystemCycle/OsSystemCycleTime,CYCLETIME,FLOAT,1
/AUTOSAR/EcucDefs/Os/OsOS/OsSystemCycle/OsSystemCycleTimeWindow,TWD,,1,*
/AUTOSAR/EcucDefs/Os/OsOS/OsSystemCycle/OsSystemCycleTimeWindow/OsSystemCycleTimeWindowStart,START,FLOAT,1
/AUTOSAR/EcucDefs/Os/OsOS/OsSystemCycle/OsSystemCycleTimeWindow/OsSystemCycleTimeWindowLength,LENGTH,FLOAT,1
/AUTOSAR/EcucDefs/Os/OsInclude,XINCLUDE,,0,*
/AUTOSAR/EcucDefs/Os/OsInclude/OsIncludeFileName,XINCNAME,+INCLUDE,1,*
/AUTOSAR/EcucDefs/Os/OsAppMode,APP,,1,*
/AUTOSAR/EcucDefs/Os/OsTask,TSK,,0,*
/AUTOSAR/EcucDefs/Os/OsTask/OsTaskActivation,ACTIVATION,INT,1
/AUTOSAR/EcucDefs/Os/OsTask/OsTaskPriority,PRIORITY,INT,1
/AUTOSAR/EcucDefs/Os/OsTask/OsTaskSchedule,SCHEDULE,ENUM,1
/AUTOSAR/EcucDefs/Os/OsTask/OsTaskEventRef,EVT_LIST,REF,0,*
/AUTOSAR/EcucDefs/Os/OsTask/OsTaskResourceRef,RES_LIST,REF,0,*
/AUTOSAR/EcucDefs/Os/OsTask/OsTaskStackSize,STKSZ,INT,0,1
/AUTOSAR/EcucDefs/Os/OsTask/OsTaskStackStartAddress,STK,+STRING,0,1
/AUTOSAR/EcucDefs/Os/OsTask/OsTaskAccessingApplication,ACS_OSAP_LIST,REF,0,*
/AUTOSAR/EcucDefs/Os/OsTask/OsTaskSystemStackSize,SSTKSZ,INT,0,1
/AUTOSAR/EcucDefs/Os/OsTask/OsTaskSystemStackStartAddress,SSTK,+STRING,0,1
/AUTOSAR/EcucDefs/Os/OsTask/OsTaskAutostart,TSK.AUTOSTART,,0,1
/AUTOSAR/EcucDefs/Os/OsTask/OsTaskAutostart/OsTaskAppModeRef,APP_LIST,REF,1,*
/AUTOSAR/EcucDefs/Os/OsIsr,ISR,,0,*
/AUTOSAR/EcucDefs/Os/OsIsr/OsIsrCategory,CATEGORY,ENUM,1
/AUTOSAR/EcucDefs/Os/OsIsr/OsIsrInterruptNumber,INTNO,INT,1
/AUTOSAR/EcucDefs/Os/OsIsr/OsIsrInterruptPriority,INTPRI,INT,1
/AUTOSAR/EcucDefs/Os/OsIsr/OsIsrResourceRef,RES_LIST,REF,0,*
/AUTOSAR/EcucDefs/Os/OsIsr/OsIsrStackSize,STKSZ,INT,0,1
/AUTOSAR/EcucDefs/Os/OsIsr/OsIsrInterruptTrigger,INTATR,INT,0,1
/AUTOSAR/EcucDefs/Os/OsIsr/OsIsrInterruptSource,SOURCE,ENUM,1
/AUTOSAR/EcucDefs/Os/OsIsr/OsIsrAccessingApplication,ACS_OSAP_LIST,REF,0,*
/AUTOSAR/EcucDefs/Os/OsIsr/OsIsrMaxFrequency,MAXFREQ,INT,0,1
/AUTOSAR/EcucDefs/Os/OsEvent,EVT,,0,*
/AUTOSAR/EcucDefs/Os/OsEvent/OsEventMask,MASK,INT,0,1
/AUTOSAR/EcucDefs/Os/OsResource,RES,,0,*
/AUTOSAR/EcucDefs/Os/OsResource/OsResourceProperty,RESATR,ENUM,1
/AUTOSAR/EcucDefs/Os/OsResource/OsResourceLinkedResourceRef,LINKEDRESID,REF,0,1
/AUTOSAR/EcucDefs/Os/OsResource/OsResourceAccessingApplication,ACS_OSAP_LIST,REF,0,*
/AUTOSAR/EcucDefs/Os/OsCounter,CNT,,0,*
/AUTOSAR/EcucDefs/Os/OsCounter/OsCounterMaxAllowedValue,MAXALLOWED,INT,1
/AUTOSAR/EcucDefs/Os/OsCounter/OsCounterMinCycle,MINCYCLE,INT,1
/AUTOSAR/EcucDefs/Os/OsCounter/OsCounterTicksPerBase,TICKSPERBASE,INT,1
/AUTOSAR/EcucDefs/Os/OsCounter/OsCounterType,CNTATR,ENUM,1
/AUTOSAR/EcucDefs/Os/OsCounter/OsSecondsPerTick,SECONDSPERTICK,FLOAT,0,1
/AUTOSAR/EcucDefs/Os/OsCounter/OsCounterIsrRef,ISRID,REF,0,1
/AUTOSAR/EcucDefs/Os/OsCounter/OsCounterAccessingApplication,ACS_OSAP_LIST,REF,0,*
/AUTOSAR/EcucDefs/Os/OsAlarm,ALM,,0,*
/AUTOSAR/EcucDefs/Os/OsAlarm/OsAlarmCounterRef,CNTID,REF,1
/AUTOSAR/EcucDefs/Os/OsAlarm/OsAlarmAccessingApplication,ACS_OSAP_LIST,REF,0,*
/AUTOSAR/EcucDefs/Os/OsAlarm/OsAlarmAction,ALM.ACTION,,1
/AUTOSAR/EcucDefs/Os/OsAlarm/OsAlarmAction/OsAlarmActivateTask,ALM.ACTION.ACTIVATETASK,,0,1
/AUTOSAR/EcucDefs/Os/OsAlarm/OsAlarmAction/OsAlarmActivateTask/OsAlarmActivateTaskRef,TSKID,REF,1
/AUTOSAR/EcucDefs/Os/OsAlarm/OsAlarmAction/OsAlarmCallback,ALM.ACTION.CALLBACK,,0,1
/AUTOSAR/EcucDefs/Os/OsAlarm/OsAlarmAction/OsAlarmCallback/OsAlarmCallbackName,CALLBACK,FUNCTION,1
/AUTOSAR/EcucDefs/Os/OsAlarm/OsAlarmAction/OsAlarmIncrementCounter,ALM.ACTION.INCREMENTCOUNTER,,0,1
/AUTOSAR/EcucDefs/Os/OsAlarm/OsAlarmAction/OsAlarmIncrementCounter/OsAlarmIncrementCounterRef,INCID,REF,1
/AUTOSAR/EcucDefs/Os/OsAlarm/OsAlarmAction/OsAlarmSetEvent,ALM.ACTION.SETEVENT,,0,1
/AUTOSAR/EcucDefs/Os/OsAlarm/OsAlarmAction/OsAlarmSetEvent/OsAlarmSetEventRef,EVTID,REF,1
/AUTOSAR/EcucDefs/Os/OsAlarm/OsAlarmAction/OsAlarmSetEvent/OsAlarmSetEventTaskRef,TSKID,REF,1
/AUTOSAR/EcucDefs/Os/OsAlarm/OsAlarmAutostart,ALM.AUTOSTART,,0,1
/AUTOSAR/EcucDefs/Os/OsAlarm/OsAlarmAutostart/OsAlarmAlarmTime,ALARMTIME,INT,1
/AUTOSAR/EcucDefs/Os/OsAlarm/OsAlarmAutostart/OsAlarmAppModeRef,APP_LIST,REF,1,*
/AUTOSAR/EcucDefs/Os/OsAlarm/OsAlarmAutostart/OsAlarmCycleTime,CYCLETIME,INT,1
/AUTOSAR/EcucDefs/Os/OsAlarm/OsAlarmAutostart/OsAlarmAutostartType,TYPE,ENUM,1
/AUTOSAR/EcucDefs/Os/OsScheduleTable,SCHTBL,,0,*
/AUTOSAR/EcucDefs/Os/OsScheduleTable/OsScheduleTableDuration,DURATIONTICK,INT,1
/AUTOSAR/EcucDefs/Os/OsScheduleTable/OsScheduleTableRepeating,REPEAT,BOOLEAN,1
/AUTOSAR/EcucDefs/Os/OsScheduleTable/OsScheduleTableCounterRef,CNTID,REF,1
/AUTOSAR/EcucDefs/Os/OsScheduleTable/OsSchTblAccessingApplication,ACS_OSAP_LIST,REF,0,*
/AUTOSAR/EcucDefs/Os/OsScheduleTable/OsScheduleTableAutostart,SCHTBL.AUTOSTART,,0,1
/AUTOSAR/EcucDefs/Os/OsScheduleTable/OsScheduleTableAutostart/OsScheduleTableStartValue,STARTTICK,INT,0,1
/AUTOSAR/EcucDefs/Os/OsScheduleTable/OsScheduleTableAutostart/OsScheduleTableAutostartType,TYPE,ENUM,1
/AUTOSAR/EcucDefs/Os/OsScheduleTable/OsScheduleTableAutostart/OsScheduleTableAppModeRef,APP_LIST,REF,1,*
/AUTOSAR/EcucDefs/Os/OsScheduleTable/OsScheduleTableExpiryPoint,SCHTBL.EXPPT,,1,*
/AUTOSAR/EcucDefs/Os/OsScheduleTable/OsScheduleTableExpiryPoint/OsScheduleTblExpPointOffset,OFFSET,INT,1
/AUTOSAR/EcucDefs/Os/OsScheduleTable/OsScheduleTableExpiryPoint/OsScheduleTableEventSetting,SCHTBL.EXPPT.SETEVENT,,0,*
/AUTOSAR/EcucDefs/Os/OsScheduleTable/OsScheduleTableExpiryPoint/OsScheduleTableEventSetting/OsScheduleTableSetEventRef,EVTID,REF,1
/AUTOSAR/EcucDefs/Os/OsScheduleTable/OsScheduleTableExpiryPoint/OsScheduleTableEventSetting/OsScheduleTableSetEventTaskRef,TSKID,REF,1
/AUTOSAR/EcucDefs/Os/OsScheduleTable/OsScheduleTableExpiryPoint/OsScheduleTableTaskActivation,SCHTBL.EXPPT.ACTIVATETASK,,0,*
/AUTOSAR/EcucDefs/Os/OsScheduleTable/OsScheduleTableExpiryPoint/OsScheduleTableTaskActivation/OsScheduleTableActivateTaskRef,TSKID,REF,1
/AUTOSAR/EcucDefs/Os/OsScheduleTable/OsScheduleTableSync,SCHTBL.SYNC,,0,1
/AUTOSAR/EcucDefs/Os/OsScheduleTable/OsScheduleTableSync/OsScheduleTblSyncStrategy,STRATEGY,ENUM,1
/AUTOSAR/EcucDefs/Os/OsApplication,OSAP,,0,*
/AUTOSAR/EcucDefs/Os/OsApplication/OsTrusted,TRUSTED,BOOLEAN,1
/AUTOSAR/EcucDefs/Os/OsApplication/OsAppAlarmRef,ALM_LIST,REF,0,*
/AUTOSAR/EcucDefs/Os/OsApplication/OsAppCounterRef,CNT_LIST,REF,0,*
/AUTOSAR/EcucDefs/Os/OsApplication/OsAppIsrRef,ISR_LIST,REF,0,*
/AUTOSAR/EcucDefs/Os/OsApplication/OsAppScheduleTableRef,SCHTBL_LIST,REF,0,*
/AUTOSAR/EcucDefs/Os/OsApplication/OsAppTaskRef,TSK_LIST,REF,0,*
/AUTOSAR/EcucDefs/Os/OsApplication/OsAppMemorySectionRef,SEC_LIST,REF,0,*
/AUTOSAR/EcucDefs/Os/OsApplication/OsAppMemoryModuleRef,MOD_LIST,REF,0,*
/AUTOSAR/EcucDefs/Os/OsApplication/OsAppMemoryAreaRef,MEM_LIST,REF,0,*
/AUTOSAR/EcucDefs/Os/OsApplication/OsRestartTask,RESTARTTASK,REF,0,1
/AUTOSAR/EcucDefs/Os/OsApplication/OsApplicationTrustedFunction,OSAP.TFN,,0,*
/AUTOSAR/EcucDefs/Os/OsApplication/OsApplicationTrustedFunction/OsTrustedFunctionName,FUNC,FUNCTION,1
/AUTOSAR/EcucDefs/Os/OsApplication/OsApplicationTrustedFunction/OsTrustedFunctionStackSize,STKSZ,INT,0,1
/AUTOSAR/EcucDefs/Os/OsApplication/OsSystemCycleTimeWindowRef,TWD_LIST,REF,0,*
/AUTOSAR/EcucDefs/Os/OsMemoryRegion,REG,,2,*
/AUTOSAR/EcucDefs/Os/OsMemoryRegion/OsMemoryRegionName,REGION,STRING,1
/AUTOSAR/EcucDefs/Os/OsMemoryRegion/OsMemoryRegionWriteable,WRITE,BOOLEAN,1
/AUTOSAR/EcucDefs/Os/OsMemoryRegion/OsMemoryRegionStartAddress,BASE,INT,1
/AUTOSAR/EcucDefs/Os/OsMemoryRegion/OsMemoryRegionSize,SIZE,INT,1
/AUTOSAR/EcucDefs/Os/OsStandardMemoryRegion,SRG,,1
/AUTOSAR/EcucDefs/Os/OsStandardMemoryRegion/OsStandardMemoryRomRegionRef,STDROM,REF,1
/AUTOSAR/EcucDefs/Os/OsStandardMemoryRegion/OsStandardMemoryRamRegionRef,STDRAM,REF,1
/AUTOSAR/EcucDefs/Os/OsMemoryArea,MEM,,0,*
/AUTOSAR/EcucDefs/Os/OsMemoryArea/OsMemoryAreaStartAddress,BASE,+STRING,1
/AUTOSAR/EcucDefs/Os/OsMemoryArea/OsMemoryAreaSize,SIZE,INT,1
/AUTOSAR/EcucDefs/Os/OsMemoryArea/OsMemoryAreaWriteable,WRITE,BOOLEAN,1
/AUTOSAR/EcucDefs/Os/OsMemoryArea/OsMemoryAreaReadable,READ,BOOLEAN,1
/AUTOSAR/EcucDefs/Os/OsMemoryArea/OsMemoryAreaExecutable,EXEC,BOOLEAN,1
/AUTOSAR/EcucDefs/Os/OsMemoryArea/OsMemoryAreaCacheable,CACHE,BOOLEAN,1
/AUTOSAR/EcucDefs/Os/OsMemoryArea/OsMemoryAreaDevice,DEVICE,BOOLEAN,1
/AUTOSAR/EcucDefs/Os/OsMemorySection,SEC,,0,*
/AUTOSAR/EcucDefs/Os/OsMemorySection/OsMemorySectionName,SECTION,STRING,1
/AUTOSAR/EcucDefs/Os/OsMemorySection/OsMemorySectionMemoryRegionRef,MEMREG,REF,1
/AUTOSAR/EcucDefs/Os/OsMemorySection/OsMemorySectionWriteable,WRITE,BOOLEAN,1
/AUTOSAR/EcucDefs/Os/OsMemorySection/OsMemorySectionReadable,READ,BOOLEAN,1
/AUTOSAR/EcucDefs/Os/OsMemorySection/OsMemorySectionExecutable,EXEC,BOOLEAN,1
/AUTOSAR/EcucDefs/Os/OsMemorySection/OsMemorySectionShort,SDATA,BOOLEAN,1
/AUTOSAR/EcucDefs/Os/OsMemorySection/OsMemorySectionCacheable,CACHE,BOOLEAN,1
/AUTOSAR/EcucDefs/Os/OsMemorySection/OsMemorySectionDevice,DEVICE,BOOLEAN,1
/AUTOSAR/EcucDefs/Os/OsMemorySection/OsMemorySectionInitialize,INIT,ENUM,0,1
/AUTOSAR/EcucDefs/Os/OsMemorySection/OsMemorySectionExport,EXPORT,BOOLEAN,1
/AUTOSAR/EcucDefs/Os/OsMemoryModule,MOD,,0,*
/AUTOSAR/EcucDefs/Os/OsMemoryModule/OsMemoryModuleName,MODULE,STRING,1,*
/AUTOSAR/EcucDefs/Os/OsMemoryModule/OsMemoryModuleExport,EXPORT,BOOLEAN,1
/AUTOSAR/EcucDefs/Os/OsLinkSection,LNK,,0,*
/AUTOSAR/EcucDefs/Os/OsLinkSection/OsLinkSectionName,SECTION,STRING,1
/AUTOSAR/EcucDefs/Os/OsLinkSection/OsLinkSectionMemoryRegionRef,MEMREG,REF,1
/AUTOSAR/EcucDefs/Os/OsIoc,OSIOC,,0,1
/AUTOSAR/EcucDefs/Os/OsIoc/OsIocCommunication,IOC,,0,*
/AUTOSAR/EcucDefs/Os/OsIoc/OsIocCommunication/OsIocBufferLength,BUFLEN,INT,0,1
/AUTOSAR/EcucDefs/Os/OsIoc/OsIocCommunication/OsIocDataProperties,IOCDATA,,1,*
/AUTOSAR/EcucDefs/Os/OsIoc/OsIocCommunication/OsIocDataProperties/OsIocDataPropertyIndex,INDEX,INT,0,1
/AUTOSAR/EcucDefs/Os/OsIoc/OsIocCommunication/OsIocDataProperties/OsIocInitValue,INITVAL,+STRING,0,1
/AUTOSAR/EcucDefs/Os/OsIoc/OsIocCommunication/OsIocDataProperties/OsIocDataTypeRef,DATATYPE,+STRING,1
/AUTOSAR/EcucDefs/Os/OsIoc/OsIocCommunication/OsIocReceiverProperties,IOCRCV,,1
/AUTOSAR/EcucDefs/Os/OsIoc/OsIocCommunication/OsIocReceiverProperties/OsIocFunctionImplementationKind,IMPLKIND,ENUM,0,1
/AUTOSAR/EcucDefs/Os/OsIoc/OsIocCommunication/OsIocReceiverProperties/OsIocReceivingOsApplicationRef,OSAPID,REF,1
/AUTOSAR/EcucDefs/Os/OsIoc/OsIocCommunication/OsIocSenderProperties,IOCSND,,1,*
/AUTOSAR/EcucDefs/Os/OsIoc/OsIocCommunication/OsIocSenderProperties/OsIocFunctionImplementationKind,IMPLKIND,ENUM,0,1
/AUTOSAR/EcucDefs/Os/OsIoc/OsIocCommunication/OsIocSenderProperties/OsIocSenderId,SENDERID,INT,0,1
/AUTOSAR/EcucDefs/Os/OsIoc/OsIocCommunication/OsIocSenderProperties/OsIocSendingOsApplicationRef,OSAPID,REF,1
