sizeof_uint8,sizeof(uint8)
sizeof_uint32,sizeof(uint32)
sizeof_OSAPINIB,sizeof(OSAPINIB)
offsetof_TCB_p_tinib,"offsetof(TCB,p_tinib)"
offsetof_TCB_curpri,"offsetof(TCB,curpri)"
offsetof_TCB_sp,"offsetof(TCB,tskctxb.sp)"
offsetof_TCB_pc,"offsetof(TCB,tskctxb.pc)"
offsetof_TCB_p_lastosapcb,"offsetof(TCB,p_lastosapcb)"
offsetof_TINIB_exepri,"offsetof(TINIB,exepri)"
offsetof_TINIB_mpubase,#!defined(OMIT_STKMPUINFOB),,"offsetof(TINIB,stkmpu.mpubase)"
offsetof_TINIB_mpuacc,#!defined(OMIT_STKMPUINFOB),,"offsetof(TINIB,stkmpu.mpuacc)"
offsetof_OSAPCB_p_osapinib,"offsetof(OSAPCB,p_osapinib)"
offsetof_OSAPINIB_osap_trusted,"offsetof(OSAPINIB,osap_trusted)"
offsetof_OSAPINIB_tnum_inst_region,#!defined(OMIT_OSAPMPUINFOB),,"offsetof(OSAPINIB,osap_mpu.tnum_inst_region)"
offsetof_OSAPINIB_tnum_data_region,#!defined(OMIT_OSAPMPUINFOB),,"offsetof(OSAPINIB,osap_mpu.tnum_data_region)"
offsetof_ISRINIB_p_osapcb,"offsetof(ISRINIB,p_osapcb)"
offsetof_ISRINIB_p_intinib,"offsetof(ISRINIB,p_intinib)"
offsetof_ISRCB_p_isrinib,"offsetof(ISRCB,p_isrinib)"
offsetof_INTINIB_remain_stksz,"offsetof(INTINIB,remain_stksz)"
offsetof_TINIB_p_osapcb,"offsetof(TINIB,p_osapcb)"
offsetof_TINIB_ustksz,#!defined(USE_TSKINICTXB),,"offsetof(TINIB,ustksz)"
NIOS2_MPU_PRV_DATA_REGION_START,NIOS2_MPU_PRV_DATA_REGION_START
NIOS2_MPU_BKGND_CODE_REGION,NIOS2_MPU_BKGND_CODE_REGION
NIOS2_MPU_BKGND_DATA_REGION,NIOS2_MPU_BKGND_DATA_REGION
offsetof_CCB_coreid,"offsetof(CCB,coreid)"
offsetof_CCB_p_runtsk,"offsetof(CCB,p_runtsk)"
offsetof_CCB_p_schedtsk,"offsetof(CCB,p_schedtsk)"
offsetof_CCB_except_nest_cnt,"offsetof(CCB,target_ccb.except_nest_cnt)"
offsetof_CCB_nested_lock_os_int_cnt,"offsetof(CCB,target_ccb.nested_lock_os_int_cnt)"
offsetof_CCB_saved_status_il,"offsetof(CCB,target_ccb.saved_status_il)"
offsetof_CCB_callevel_stat,"offsetof(CCB,callevel_stat)"
offsetof_CCB_p_runisr,"offsetof(CCB,p_runisr)"
offsetof_CCB_p_currentosap,"offsetof(CCB,p_currentosap)"
offsetof_CCB_run_trusted,"offsetof(CCB,run_trusted)"
offsetof_CCB_pre_protection_supervised,"offsetof(CCB,pre_protection_supervised)"
offsetof_CCB_kerflg,"offsetof(CCB,kerflg)"
offsetof_CCB_p_ctxstk,"offsetof(CCB,target_ccb.p_ctxstk)"
offsetof_CCB_p_ctxosap,"offsetof(CCB,target_ccb.p_ctxosap)"
offsetof_CCB_exception_temporary1,"offsetof(CCB,target_ccb.exception_temporary1)"
offsetof_CCB_exception_temporary2,"offsetof(CCB,target_ccb.exception_temporary2)"
offsetof_CCB_ici_request_map,"offsetof(CCB,ici_request_map)"
offsetof_CCB_ici_disreqflg,"offsetof(CCB,ici_disreqflg)"
offsetof_CCB_term_osap_id_map,"offsetof(CCB,term_osap_id_map)"
offsetof_CCB_context_discard_flg,"offsetof(CCB,context_discard_flg)"
