TCL_TASK,TCL_TASK
TCL_ISR2,TCL_ISR2
TSYS_ISR1,TSYS_ISR1
ISPR_H,ISPR_H
ISPC_H,ISPC_H
E_OS_PROTECTION_EXCEPTION,E_OS_PROTECTION_EXCEPTION
TSYS_DISALLINT,TSYS_DISALLINT
STACK_MAGIC_NUMBER,STACK_MAGIC_NUMBER
E_OS_STACKFAULT,E_OS_STACKFAULT
ENABLE_RETURN_MAIN,#defined(ENABLE_RETURN_MAIN)
LOG_DSP_ENTER,#defined(LOG_DSP_ENTER)
LOG_DSP_LEAVE,#defined(LOG_DSP_LEAVE)
